{
    "prefix":"62",
    "fraudSettings":[
        {
            "binBlockProfile":{
                "type":"text"
            },
            "checkBlockedIP": {
                "type":"checkbox"
            },
            "checkBlockedClass-C": {
                "type":"checkbox"
            },
            "checkBlockedName":{
                "type":"checkbox"
            },
            "checkBlockedCard":{
                "type":"checkbox"
            },
            "duplicateLockoutTimeSeconds":{
                "type":"text"
            },
            "autoLockoutTimeSeconds":{
                "type":"text"
            }
        }
    ],
    "acquirer":[
        "FDMX-MXN",
        "FDMX-USD"
    ],
    "services":[
        {
            "api":{
            },
            "creditCard":{
                "config":{
                    "AVS": {
                        "type":"checkbox",
                        "default":"false"
                    },
                    "Amex":  {
                        "type":"checkbox",
                        "default":"false"
                    },
                    "CUP":  {
                        "type":"checkbox",
                        "default":"false"
                    },
                    "Diners":  {
                        "type":"checkbox",
                        "default":"false"
                    },
                    "IPaddressInAuthRequest":  {
                        "type":"checkbox",
                        "default":"false"
                    },
                    "JCB":  {
                        "type":"checkbox",
                        "default":"false"
                    },
                    "Mastercard":  {
                        "type":"checkbox",
                        "default":"true"
                    },
                    "Visa":  {
                        "type":"checkbox",
                        "default":"true"
                    },
                    "accountUpdaterVisa":  {
                        "type":"checkbox",
                        "default":"false"
                    },
                    "allowCredits":  {
                        "type":"checkbox",
                        "default":"false"
                    },
                    "allowECI7_API":  {
                        "type":"checkbox",
                        "default":"false"
                    },
                    "allowECI7_Connect":  {
                        "type":"checkbox",
                        "default":"false"
                    },
                    "allowECI7_EPAS":  {
                        "type":"checkbox",
                        "default":"false"
                    },
                    "allowECI7_VT":  {
                        "type":"checkbox",
                        "default":"false"
                    },
                    "allowOnlineAuthForRefund":  {
                        "type":"checkbox",
                        "default":"false"
                    },
                    "allowPurchaseCards":  {
                        "type":"checkbox",
                        "default":"false"
                    },
                    "cardCodeMandatory":  {
                        "type":"checkbox",
                        "default":"true"
                    },
                    "exceedPreauthAllowedInPercent":  {
                        "type":"text",
                        "default":"0"
                    },
                    "mexicoLocal":  {
                        "type":"checkbox",
                        "default":"true"
                    }
                  }
            },
            "connect":{
                "config": {
                    "allowExtendedHashCalculationWithoutCardDetails": {
                     "type":"checkbox",
                     "default":"false"
                    },
                    "allowMOTO": {
                     "type":"checkbox",
                     "default":"false"
                    },
                    "allowMaestroWithout3DS": {
                     "type":"checkbox",
                     "default":"false"
                    },
                    "allowPreauth_connect": {
                     "type":"checkbox",
                     "default":"true"
                    },
                    "allowSale_connect": {
                     "type":"checkbox",
                     "default":"true"
                    },
                    "allowVoid": {
                     "type":"checkbox",
                     "default":"false"
                    },
                    "cardCodeBehaviour":{
                     "type":"select",
                     "default":"mandatory",
                     "options":["mandatory","optional","hidden"]
                    },
                    "checkoutOptionCombinedPage": {
                     "type":"checkbox",
                     "default":"false"
                    },
                    "hideCardBrandLogoInCombinedPage": {
                     "type":"checkbox",
                     "default":"false"
                    },
                    "overwriteURLsAllowed": {
                     "type":"checkbox",
                     "default":"true"
                    },
                    "responseFailureURL": {
                     "type":"text",
                     "default":""
                    },
                    "responseSuccessURL": {
                     "type":"text",
                     "default":""
                    },
                    "reviewURL": {
                     "type":"text",
                     "default":""
                    },
                    "sharedSecret": {
                     "type":"function",
                     "id":"SharedSecretGen"
                    },
                    "skipResultPageForFailure": {
                     "type":"checkbox",
                     "default":"true"
                    },
                    "skipResultPageForSuccess": {
                     "type":"checkbox",
                     "default":"true"
                    },
                    "transactionNotificationURL": {
                     "type":"text",
                     "default":""
                    }
                  }     
            }
        }
    ],
    "timezone":"America/Mexico_City",
    "default_currency":"MXN",
    "default_URL":"https://www.firstdata.com/es_mx/home.html",
    "terminal_components":[
        {
            "endpointID":{
                "type":"select",
                "options":[
                    {
                        "default":"true",
                        "name":"endpointID",
                        "value":"NASHVILLE MEXICO"
                    }
                    
                ]
            },
            "paymentMethod":{
                "type":"checklist",
                "options":[
                    {
                        "default":"true",
                        "name":"MASTERCARD",
                        "value":"MASTERCARD" 
                    },
                    {
                        "default":"true",
                        "name":"VISA",
                        "value":"VISA" 
                    },
                    {
                        "default":"false",
                        "name":"AMEX",
                        "value":"AMEX" 
                    },
                    {
                        "default":"true",
                        "name":"MEXICOLOCAL",
                        "value":"MEXICOLOCAL" 
                    },
                    {
                        "default":"false",
                        "name":"MAESTRO",
                        "value":"MAESTRO" 
                    }
                ]
            },
            "transactionOrigin":{
                "type":"checklist",
                "options":[
                    "ECI",
                    "MOTO"
                ]
            },
            "submissionComponent":{
                "type":"checklist",
                "options":[
                    "API",
                    "CONNECT",
                    "VT"
                ]
            },
            "payerSecurityLevel":{
                "type":"checklist",
                "options":[
                    "EMPTY",
                    "NOT_EMPTY"
                ]
            },
            "currency":{
                "type":"select",
                "options":[
                    "MXN",
                    "USD"
                ]
            }
        }
    ]

}