{
    "prefix":"39",
    "fraudSettings":[],
    "acquirer":["FDMX-MXN","FDMX-USD"],
    "services":[],
    "timezone":"America/Mexico_City",
    "default_currency":"MXN",
    "default_URL":"https://www.firstdata.com/es_mx/home.html",
    "endpointID":[],
    "paymentMethod":[],
    "transactionOrigin":[],
    "submissionComponent":[],
    "payerSecurityLevel":[],
    "currency":[]
}